Continuous Outcome Analysis
…
Data exploration and cleaning

Investigating the outcome of interest

Let’s assume that our main outcome of interest is the fraction of individuals that become infected in a given outbreak. The data reports that outcome (called RateAll), but we’ll also compute it ourselves so that we can practice creating new variables. To do so, take a look at the data (maybe peek at the Codebook) and decide which of the existing variables you should use to compute the new one. This new outcome variable will be added to the data frame.

# The codebook defines RateAll as: 
# Attack rate (i.e. (secondary cases + primary cases/persons at risk)*100) from outbreak. # # I'm assuming that there should be parentheses around 'secondary cases + primary cases'. # # Relevant variables are: Cases1, Cases2, RiskAll? 
# Or do I need to divide primary cases by Risk1 and secondary by Risk2?

# Examine Risk1, Risk2, RiskAll to get a better idea of what they are

(data_raw[, c("Risk1", "Risk2", "RiskAll")])

## # A tibble: 1,022 x 3
##    Risk1 Risk2 RiskAll
##    <dbl> <dbl>   <dbl>
##  1   0      NA     0  
##  2 108      NA   108  
##  3 130      NA   130  
##  4   4      NA     4  
##  5  25      NA    25  
##  6   8      NA     8  
##  7  48      NA    48  
##  8  12      NA    12  
##  9 220      NA   220  
## 10  71.4    NA    71.4
## # … with 1,012 more rows
…
# TRUE = 902 and NA = 120. That adds up correctly to the 1022 data records. 
# Here, NA = 120 is the number of records in which both Risk1 and Risk2 are NA?? 
# Let's check...

(data_raw %>%
    filter(is.na(Risk1) & is.na(Risk2)) %>%
    select(Risk1, Risk2, RiskAll)) # hmmm...nothing

## # A tibble: 0 x 3
## # … with 3 variables: Risk1 <dbl>, Risk2 <dbl>, RiskAll <dbl>

(data_raw[which(is.na(match_vec)), c("Risk1", "Risk2", "RiskAll")]) 

## # A tibble: 120 x 3
##    Risk1 Risk2 RiskAll
##    <dbl> <dbl>   <dbl>
##  1     0    NA      NA
##  2     0    NA      NA
##  3     0    NA      NA
##  4     0    NA      NA
##  5     0    NA      NA
##  6     0    NA      NA
##  7     0    NA      NA
##  8     0    NA      NA
##  9     0    NA      NA
## 10     0    NA      NA
## # … with 110 more rows

# Oh, so these are all records in which Risk1 = 0 and Risk2 = NA

# Now to the task at hand, which is to manually calculate RateAll as a variable called 'fracinf'. 
# Just to stick with the capitalization format used in t data_raw, I'll call it 'FracInf'

d <- data_raw %>%
  dplyr::mutate(FracInf = ((Cases1 + Cases2)/RiskAll) * 100) 

# Note that there will be some funny results when RiskAll is NA

(d %>% select(Cases1, Cases2, Risk1, Risk2, RiskAll, FracInf, RateAll)) 

## # A tibble: 1,022 x 7
##    Cases1 Cases2 Risk1 Risk2 RiskAll FracInf RateAll
##     <dbl>  <dbl> <dbl> <dbl>   <dbl>   <dbl>   <dbl>
##  1     15     NA   0      NA     0      NA       0  
##  2     43     22 108      NA   108      60.2    39.8
##  3     27     NA 130      NA   130      NA      20.8
##  4      4     NA   4      NA     4      NA     100  
##  5     15     NA  25      NA    25      NA      60  
##  6      6     NA   8      NA     8      NA      75  
##  7     40     NA  48      NA    48      NA      83.3
##  8     10     NA  12      NA    12      NA      83.3
##  9    116     NA 220      NA   220      NA      54.2
## 10     45     NA  71.4    NA    71.4    NA      63  
## # … with 1,012 more rows

# WHOOPS! Clearly I did that wrong. 
# So it looks like the equation should be: ((Cases1/Risk1) + (Cases2/Risk2)) * 100. 
# I guess that makes more sense anyway. Try again...

d <- data_raw %>%
  rowwise() %>%
  dplyr::mutate(FracInf = sum(Cases1/Risk1, Cases2/Risk2, na.rm = TRUE) * 100) %>%
  ungroup()

(d %>% select(Cases1, Cases2, Risk1, Risk2, RiskAll, FracInf, RateAll))

## # A tibble: 1,022 x 7
##    Cases1 Cases2 Risk1 Risk2 RiskAll FracInf RateAll
##     <dbl>  <dbl> <dbl> <dbl>   <dbl>   <dbl>   <dbl>
##  1     15     NA   0      NA     0     Inf       0  
##  2     43     22 108      NA   108      39.8    39.8
##  3     27     NA 130      NA   130      20.8    20.8
##  4      4     NA   4      NA     4     100     100  
##  5     15     NA  25      NA    25      60      60  
##  6      6     NA   8      NA     8      75      75  
##  7     40     NA  48      NA    48      83.3    83.3
##  8     10     NA  12      NA    12      83.3    83.3
##  9    116     NA 220      NA   220      52.7    54.2
## 10     45     NA  71.4    NA    71.4    63.0    63  
## # … with 1,012 more rows
…
# Got a warning: Removed 544 rows containing non-finite values (stat_density).
# Let's try it with just the records where both variables actually have a number, so it's a more fair comparison
(d_select_compl <- d_select %>%
    select(FracInf, RateAll) %>%
    filter(!is.na(FracInf) & !is.na(RateAll)) %>%
    filter(is.finite(FracInf) & is.finite(RateAll)) %>%
  gather()) # save this in a variable for later summaries

## # A tibble: 1,158 x 2
##    key     value
##    <chr>   <dbl>
##  1 FracInf  39.8
##  2 FracInf  20.8
##  3 FracInf 100  
##  4 FracInf  60  
##  5 FracInf  75  
##  6 FracInf  83.3
##  7 FracInf  83.3
##  8 FracInf  52.7
##  9 FracInf  63.0
## 10 FracInf  37.5
## # … with 1,148 more rows
…
# Looks like pop bottles
# We see a string of value = 100 for both variables. And also a value > 100.
(d_select %>%
  filter(is.finite(FracInf) & is.finite(RateAll)) %>% # only way to get rid of Inf
  filter(FracInf >= 100 | RateAll >= 100))

## # A tibble: 38 x 7
##    Cases1 Cases2 Risk1 Risk2 RiskAll FracInf RateAll
##     <dbl>  <dbl> <dbl> <dbl>   <dbl>   <dbl>   <dbl>
##  1      4     NA     4    NA       4     100     100
##  2      2     NA     2    NA       2     100     100
##  3      3     NA     3    NA       3     100     100
##  4      2     NA     2    NA       2     100     100
##  5      5     NA     5    NA       5     100     100
##  6      2     NA     2    NA       2     100     100
##  7      6     NA     6    NA       6     100     100
##  8      3     NA     3    NA       3     100     100
##  9      2     NA     2    NA       2     100     100
## 10      2     NA     2    NA       2     100     100
## # … with 28 more rows
…
Here, I think that if nobody is at risk, we shouldn’t include those outbreaks in further analysis. Thus, we’ll go with our computed outcome and remove all observations that have missing or infinite values for the outcome of interest, since those can’t be used for model fitting. Thus, we go ahead and remove any observations that have un-useable values in the outcome.

# Write code that removes all observations that have an outcome that is not very useful, i.e. either NA or infinity. Then look at the outcome variable again to make sure things are fixed. Also check the size of the new dataset to see by how much it shrunk.
dat_temp <- d_select_compl <- d %>%
    filter(is.finite(FracInf) & !is.na(FracInf))
dim(dat_temp)

## [1] 586 140

dat_temp2 <- dat_temp %>%
  filter(FracInf > 0) 
(dat_temp2[, c("FracInf", "RateAll")])

## # A tibble: 579 x 2
##    FracInf RateAll
##      <dbl>   <dbl>
##  1    39.8    39.8
##  2    20.8    20.8
##  3   100     100  
##  4    60      60  
##  5    75      75  
##  6    83.3    83.3
##  7    83.3    83.3
##  8    52.7    54.2
##  9    63.0    63  
## 10    37.5    37.5
## # … with 569 more rows
…
#write code that creates a new variable called `Setting` based on `Setting_1` buth with only 2 levels, `Restaurant` and `Other`. Then remove the `Setting_1` variable. Note that restaurant is sometimes capitalized and sometimes not. You need to fix that first. For these lines of code, the 'Factor' chapter in R4DS might be helpful here.
levels(dat_temp5$Setting_1)[grep("restaurant", levels(dat_temp5$Setting_1), ignore.case = TRUE)]

## [1] "Catering service in Restaurant"   "restaurant"                      
## [3] "Restaurant"                       "restaurant in Northern Territory"
## [5] "Shared meal at a restaurant"      "take-out restaurant"

# There are 2 categories that could be considered restaurant
# Convert all others to 'Other'
dat_temp6 <- dat_temp5 %>%
  mutate(Setting = ifelse(Setting_1 %in% levels(dat_temp5$Setting_1)[grep("restaurant", levels(dat_temp5$Setting_1), ignore.case = TRUE)], "Restaurant", "Other"))
(dat_temp6[, c("Setting", "Setting_1")])

## # A tibble: 513 x 2
##    Setting    Setting_1                 
##    <chr>      <fct>                     
##  1 Other      Boxed lunch, football game
##  2 Other      buffet                    
##  3 Restaurant restaurant                
##  4 Other      buffet                    
##  5 Restaurant take-out restaurant       
##  6 Other      buffet                    
##  7 Restaurant restaurant                
##  8 Other      in El Grao de Castello_n  
##  9 Other      0                         
## 10 Other      Luncheon and Restaruant   
## # … with 503 more rows
…
