TidyTuesday1
…
# Since price levels only range from 0 to 3 as integers, I'll convert this variable to an ordered factor for graphing
barstool2$price_level <- factor(barstool2$price_level)

# Extract the data records for pizza places represented more than once in the dataset, to see if they are duplicate records
dup_names <- barstool2 %>%
  group_by(name) %>%
  filter(n() > 1) %>%
  arrange(name)
dup_names[, c("name", "zip", "latitude", "longitude")]

## # A tibble: 21 x 4
## # Groups:   name [10]
##    name                        zip   latitude longitude
##    <fct>                       <fct>    <dbl>     <dbl>
##  1 Bonanno's New York Pizzeria 89109     36.1    -115. 
##  2 Bonanno's New York Pizzeria 89109     36.1    -115. 
##  3 Joe's Pizza                 90401     34.0    -118. 
##  4 Joe's Pizza                 10014     40.7     -74.0
##  5 Joe's Pizza                 10011     40.7     -74.0
##  6 Justino's Pizzeria          10019     40.8     -74.0
##  7 Justino's Pizzeria          10004     40.7     -74.0
##  8 Kiss My Slice               10022     40.8     -74.0
##  9 Kiss My Slice               10018     40.8     -74.0
## 10 Little Italy Pizza          10036     40.8     -74.0
## #  with 11 more rows
…
